14
Cd4O8Si2
Cd 5.7616601877667364e+00 1.2939655343804292e+01 1.1316913254912617e+01
Cd 5.7616601877667364e+00 5.9270358892716297e+00 1.1316913254912617e+01
Cd 2.8808300938833686e+00 1.2103630810026496e+00 5.6584566274563084e+00
Cd 2.8808300938833686e+00 8.2229825355353121e+00 5.6584566274563084e+00
O 3.9718940369192222e+00 7.4755576464217128e+00 1.6659092097208406e+00
O 1.7897661508475720e+00 7.4755576464217128e+00 9.6510040451918897e+00
O 1.7897661508475720e+00 1.9577879701163430e+00 1.6659092097208406e+00
O 3.9718940369192222e+00 1.9577879701163430e+00 9.6510040451918897e+00
O 4.6705962447308824e+00 6.6744607783852299e+00 1.5309460672648086e+01
O 6.8527241308025335e+00 6.6744607783852299e+00 7.3243658371770355e+00
O 6.8527241308025335e+00 1.2192230454690598e+01 1.5309460672648086e+01
O 4.6705962447308824e+00 1.2192230454690598e+01 7.3243658371770355e+00
Si 0.0000000000000000e+00 0.0000000000000000e+00 0.0000000000000000e+00
Si 8.6424902816501046e+00 1.4150018424806941e+01 1.6975369882368923e+01
