8
Cd1Na2S4Sn1
Cd 9.9380527991388838e+00 1.2811690810313944e+01 4.3156612020937777e+00
Na -5.4559955427992115e+00 8.5492573950463733e+00 0.0000000000000000e+00
Na -3.4190741957003468e-01 1.2811690810313944e+01 4.3156612020939500e+00
S 2.2952390109583698e+00 1.7270167385759429e+01 4.7466915009216581e+00
S 2.2952390109583694e+00 8.3532142348685454e+00 3.8846309032661566e+00
S -2.8334302965366724e+00 3.8786034508143548e+00 2.2204969043788078e-01
S -2.8334302965366742e+00 2.1744778169813536e+01 8.4092727137498464e+00
Sn 4.8381385589232124e+00 8.5492573950463733e+00 0.0000000000000000e+00
